
------------------------------------------------------------
Sender: LSF System <lsfadmin@n-62-21-107>
Subject: Job 7096958: <NONAME> in cluster <dcc> Done

Job <NONAME> was submitted from host <hpclogin2> by user <s174516> in cluster <dcc> at Mon Jun  8 14:05:21 2020
Job was executed on host(s) <n-62-21-107>, in queue <hpc>, as user <s174516> in cluster <dcc> at Mon Jun  8 14:05:23 2020
</zhome/fa/5/127129> was used as the home directory.
</zhome/fa/5/127129/lineup-classifier> was used as the working directory.
Started at Mon Jun  8 14:05:23 2020
Terminated at Mon Jun  8 14:05:23 2020
Results reported at Mon Jun  8 14:05:23 2020

Your job looked like:

------------------------------------------------------------
# LSBATCH: User input
jobs
------------------------------------------------------------

Successfully completed.

Resource usage summary:

    CPU time :                                   0.31 sec.
    Max Memory :                                 -
    Average Memory :                             -
    Total Requested Memory :                     1024.00 MB
    Delta Memory :                               -
    Max Swap :                                   -
    Max Processes :                              -
    Max Threads :                                -
    Run time :                                   0 sec.
    Turnaround time :                            2 sec.

The output (if any) is above this job summary.

